^C:\USERS\MEITH\DESKTOP\OPENGL\SPACETRAVEL\SPACETRAVEL\DEBUG\CAMERA.OBJ|C:\USERS\MEITH\DESKTOP\OPENGL\SPACETRAVEL\SPACETRAVEL\DEBUG\GAME.OBJ|C:\USERS\MEITH\DESKTOP\OPENGL\SPACETRAVEL\SPACETRAVEL\DEBUG\GLSLSHADER.OBJ|C:\USERS\MEITH\DESKTOP\OPENGL\SPACETRAVEL\SPACETRAVEL\DEBUG\INPUTHANDLER.OBJ|C:\USERS\MEITH\DESKTOP\OPENGL\SPACETRAVEL\SPACETRAVEL\DEBUG\MAIN.OBJ|C:\USERS\MEITH\DESKTOP\OPENGL\SPACETRAVEL\SPACETRAVEL\DEBUG\SPHERE.OBJ|C:\USERS\MEITH\DESKTOP\OPENGL\SPACETRAVEL\SPACETRAVEL\DEBUG\UTIL.OBJ|C:\USERS\MEITH\DESKTOP\OPENGL\SPACETRAVEL\SPACETRAVEL\DEBUG\WINDOW.OBJ
/OUT:"C:\USERS\MEITH\DESKTOP\OPENGL\SPACETRAVEL\DEBUG\SPACETRAVEL.EXE" /INCREMENTAL /NOLOGO glew32.lib opengl32.lib SDL2.lib SDL2main.lib SDL2test.lib kernel32.lib user32.lib gdi32.lib winspool.lib comdlg32.lib advapi32.lib shell32.lib ole32.lib oleaut32.lib uuid.lib odbc32.lib odbccp32.lib /MANIFEST /MANIFESTUAC:"level='asInvoker' uiAccess='false'" /manifest:embed /DEBUG /PDB:"C:\USERS\MEITH\DESKTOP\OPENGL\SPACETRAVEL\DEBUG\SPACETRAVEL.PDB" /SUBSYSTEM:CONSOLE /TLBID:1 /DYNAMICBASE /NXCOMPAT /IMPLIB:"C:\USERS\MEITH\DESKTOP\OPENGL\SPACETRAVEL\DEBUG\SPACETRAVEL.LIB" /MACHINE:X86 DEBUG\CAMERA.OBJDEBUG\GAME.OBJDEBUG\GLSLSHADER.OBJDEBUG\INPUTHANDLER.OBJDEBUG\MAIN.OBJDEBUG\SPHERE.OBJDEBUG\UTIL.OBJDEBUG\WINDOW.OBJ
^D:\USERS\MJ9617\DESKTOP\SPACETRAVEL\SPACETRAVEL\DEBUG\CAMERA.OBJ|D:\USERS\MJ9617\DESKTOP\SPACETRAVEL\SPACETRAVEL\DEBUG\GAME.OBJ|D:\USERS\MJ9617\DESKTOP\SPACETRAVEL\SPACETRAVEL\DEBUG\GLSLSHADER.OBJ|D:\USERS\MJ9617\DESKTOP\SPACETRAVEL\SPACETRAVEL\DEBUG\INPUTHANDLER.OBJ|D:\USERS\MJ9617\DESKTOP\SPACETRAVEL\SPACETRAVEL\DEBUG\MAIN.OBJ|D:\USERS\MJ9617\DESKTOP\SPACETRAVEL\SPACETRAVEL\DEBUG\SPHERE.OBJ|D:\USERS\MJ9617\DESKTOP\SPACETRAVEL\SPACETRAVEL\DEBUG\UTIL.OBJ|D:\USERS\MJ9617\DESKTOP\SPACETRAVEL\SPACETRAVEL\DEBUG\WINDOW.OBJ
/OUT:"D:\USERS\MJ9617\DESKTOP\SPACETRAVEL\DEBUG\SPACETRAVEL.EXE" /INCREMENTAL /NOLOGO glew32.lib opengl32.lib SDL2.lib SDL2main.lib SDL2test.lib kernel32.lib user32.lib gdi32.lib winspool.lib comdlg32.lib advapi32.lib shell32.lib ole32.lib oleaut32.lib uuid.lib odbc32.lib odbccp32.lib /MANIFEST /MANIFESTUAC:"level='asInvoker' uiAccess='false'" /manifest:embed /DEBUG /PDB:"D:\USERS\MJ9617\DESKTOP\SPACETRAVEL\DEBUG\SPACETRAVEL.PDB" /SUBSYSTEM:CONSOLE /TLBID:1 /DYNAMICBASE /NXCOMPAT /IMPLIB:"D:\USERS\MJ9617\DESKTOP\SPACETRAVEL\DEBUG\SPACETRAVEL.LIB" /MACHINE:X86 DEBUG\CAMERA.OBJDEBUG\GAME.OBJDEBUG\GLSLSHADER.OBJDEBUG\INPUTHANDLER.OBJDEBUG\MAIN.OBJDEBUG\SPHERE.OBJDEBUG\UTIL.OBJDEBUG\WINDOW.OBJ
